[
    {
        "user_id": "f47ac10b-58cc-4372-a567-0e02b2c3d479",
        "username": "EgillSkallagrimsson",
        "email": "egill@olgerdin.is",
        "tickets": [
            "579bd990-a806-4dd4-a3f7-904b9a85966c",
            "0edeaab2-54c4-4d16-9793-ea4f30b2aa96"
        ]
    },
    {
        "user_id": "e41c9180-aa96-4e40-aa2a-c53d15109f3b",
        "username": "GudrunOsvifursdottir",
        "email": "guddastud@simnet.is",
        "tickets": [
			"80b3a22c-9418-4f97-bd08-709abd173a46"
		]
    },
    {
        "user_id": "9563142d-68f6-429f-bec5-d4bfd93d7310",
        "username": "HallgerdurLangbrok",
        "email": "hallgerdur@icewear.is",
        "tickets": [
            "2e0a2a6e-4c6a-456b-a919-c58ec2c4788e"
        ]
    },
    {
        "user_id": "3c4c0be8-0878-4904-9d9e-8e8285a6e50c",
        "username": "IngolfurArnarson",
        "email": "ingo69@reykjavik.is",
        "tickets": [
            "8c5981c7-edb4-4208-9ebb-28865e705ed3"
        ]
    }
]
